<?xml version="1.0" encoding="utf-8"?>
<!-- Generator: Adobe Illustrator 23.0.0, SVG Export Plug-In . SVG Version: 6.00 Build 0)  -->
<svg version="1.1" id="Слой_1" xmlns="http://www.w3.org/2000/svg" xmlns:xlink="http://www.w3.org/1999/xlink" x="0px" y="0px"
	 viewBox="0 0 500 500" style="enable-background:new 0 0 500 500;" xml:space="preserve">
<style type="text/css">
	.st0{fill:#FA7E2B;}
</style>
<g>
	<path class="st0" d="M13.66,327.37c23.14,53,86.84,125.77,236.8,125.77c150.04,0,213.7-74.63,236.88-127.52
		c1.67-3.82-35.67,77.78-237.39,78.36C46.41,404.56,12.01,323.59,13.66,327.37z"/>
	<path class="st0" d="M396.02,281.25c52.81-12.47,91.94-60.33,90.97-117.16c-1.1-64.45-54.36-116.52-118.82-116.22
		c-33.33,0.16-63.4,14.1-84.81,36.43c-6.87,7.16-16.45,11.19-26.37,10.76c-2.17-0.09-4.34-0.14-6.53-0.14
		c-1.1,0-2.19,0.01-3.28,0.04c-11.94,0.26-23.4-4.57-31.89-12.96c-21.24-20.98-50.37-33.97-82.54-34.12
		C68.29,47.57,15.03,99.63,13.93,164.08c-0.95,55.81,36.77,102.96,88.13,116.45c-24.78-4.42-91.57,24.74-88.4,32.01
		c23.14,53,116.37,81.87,236.8,81.87c114.08,0,213.7-30.73,236.88-83.63C490.69,303.16,408.61,277.52,396.02,281.25z M147,250.17
		c-41.02,0-74.27-33.25-74.27-74.27s33.25-74.27,74.27-74.27s74.27,33.25,74.27,74.27S188.01,250.17,147,250.17z M276.08,175.91
		c0-41.02,33.25-74.27,74.27-74.27s74.27,33.25,74.27,74.27s-33.25,74.27-74.27,74.27S276.08,216.92,276.08,175.91z"/>
	<path class="st0" d="M147,136.72c-21.64,0-39.18,17.54-39.18,39.18s17.54,39.18,39.18,39.18s39.18-17.54,39.18-39.18
		S168.64,136.72,147,136.72z M160.59,181.46c-7.51,0-13.6-6.09-13.6-13.6c0-7.51,6.09-13.6,13.6-13.6s13.6,6.09,13.6,13.6
		C174.19,175.37,168.1,181.46,160.59,181.46z"/>
	<path class="st0" d="M354.31,136.72c-21.64,0-39.18,17.54-39.18,39.18s17.54,39.18,39.18,39.18s39.18-17.54,39.18-39.18
		S375.95,136.72,354.31,136.72z M367.9,181.46c-7.51,0-13.6-6.09-13.6-13.6c0-7.51,6.09-13.6,13.6-13.6s13.6,6.09,13.6,13.6
		C381.5,175.37,375.41,181.46,367.9,181.46z"/>
</g>
</svg>
